module testwork1

go 1.22

require (
	github.com/go-ozzo/ozzo-validation/v4 v4.3.0
	github.com/labstack/echo/v4 v4.11.4
	github.com/rs/zerolog v1.32.0
	google.golang.org/grpc v1.62.1
	gopkg.in/yaml.v3 v3.0.1
)

require (
	github.com/golang/protobuf v1.5.3 // indirect
	github.com/labstack/gommon v0.4.2 // indirect
	github.com/mattn/go-colorable v0.1.13 // indirect
	github.com/mattn/go-isatty v0.0.20 // indirect
	github.com/valyala/bytebufferpool v1.0.0 // indirect
	github.com/valyala/fasttemplate v1.2.2 // indirect
	golang.org/x/crypto v0.18.0 // indirect
	golang.org/x/net v0.20.0 // indirect
	golang.org/x/sys v0.16.0 // indirect
	golang.org/x/text v0.14.0 // indirect
	google.golang.org/genproto/googleapis/rpc v0.0.0-20240123012728-ef4313101c80 // indirect
	google.golang.org/protobuf v1.32.0 // indirect
)
